%YAML 1.1
%TAG !u! tag:unity3d.com,2011:
--- !u!21 &2100000
Material:
  serializedVersion: 6
  m_ObjectHideFlags: 0
  m_CorrespondingSourceObject: {fileID: 0}
  m_PrefabInstance: {fileID: 0}
  m_PrefabAsset: {fileID: 0}
  m_Name: Particles
  m_Shader: {fileID: 4800000, guid: 3bc67cd3532d0b2429f1a3eddf7f22f7, type: 3}
  m_ShaderKeywords: BlendAlpha Clip_OFF FrameBlend_OFF FresnelFade_OFF SoftParticles_OFF
    VertLight_OFF _BLENDMODE_BLEND _FADING_ON
  m_LightmapFlags: 5
  m_EnableInstancingVariants: 1
  m_DoubleSidedGI: 0
  m_CustomRenderQueue: -1
  stringTagMap: {}
  disabledShaderPasses: []
  m_SavedProperties:
    serializedVersion: 3
    m_TexEnvs:
    - _BumpMap:
        m_Texture: {fileID: 0}
        m_Scale: {x: 1, y: 1}
        m_Offset: {x: 0, y: 0}
    - _CutoutTex:
        m_Texture: {fileID: 0}
        m_Scale: {x: 1, y: 1}
        m_Offset: {x: 0, y: 0}
    - _DetailAlbedoMap:
        m_Texture: {fileID: 0}
        m_Scale: {x: 1, y: 1}
        m_Offset: {x: 0, y: 0}
    - _DetailMask:
        m_Texture: {fileID: 0}
        m_Scale: {x: 1, y: 1}
        m_Offset: {x: 0, y: 0}
    - _DetailNormalMap:
        m_Texture: {fileID: 0}
        m_Scale: {x: 1, y: 1}
        m_Offset: {x: 0, y: 0}
    - _EmissionMap:
        m_Texture: {fileID: 0}
        m_Scale: {x: 1, y: 1}
        m_Offset: {x: 0, y: 0}
    - _HeightTex:
        m_Texture: {fileID: 0}
        m_Scale: {x: 1, y: 1}
        m_Offset: {x: 0, y: 0}
    - _MainTex:
        m_Texture: {fileID: 0}
        m_Scale: {x: 1, y: 1}
        m_Offset: {x: 0, y: 0}
    - _MetallicGlossMap:
        m_Texture: {fileID: 0}
        m_Scale: {x: 1, y: 1}
        m_Offset: {x: 0, y: 0}
    - _NoiseTex:
        m_Texture: {fileID: 0}
        m_Scale: {x: 1, y: 1}
        m_Offset: {x: 0, y: 0}
    - _NormalTex:
        m_Texture: {fileID: 2800000, guid: df20aa6c2120a4340afbb52dc86fd1ef, type: 3}
        m_Scale: {x: 1, y: 1}
        m_Offset: {x: 0, y: 0}
    - _OcclusionMap:
        m_Texture: {fileID: 0}
        m_Scale: {x: 1, y: 1}
        m_Offset: {x: 0, y: 0}
    - _ParallaxMap:
        m_Texture: {fileID: 0}
        m_Scale: {x: 1, y: 1}
        m_Offset: {x: 0, y: 0}
    m_Floats:
    - CullMode: 2
    - DstMode: 10
    - SrcMode: 5
    - _AlphaClip: 10
    - _BlendMode: 1
    - _BumpScale: 1
    - _CullMode: 2
    - _Cutoff: 0.5
    - _Cutout: 0.2
    - _CutoutThreshold: 0.015
    - _DetailNormalMapScale: 1
    - _Distortion: 50
    - _DstBlend: 0
    - _DstMode: 10
    - _FresnelDistort: 1500
    - _FresnelFadeFactor: 3
    - _FresnelPow: 5
    - _FresnelR0: 0.04
    - _FresnelStr: 1
    - _Glossiness: 0.5
    - _Height: 0.1
    - _InvFade: 100
    - _Metallic: 0
    - _Mode: 0
    - _OcclusionStrength: 1
    - _Parallax: 0.02
    - _RefractiveStrength: 0
    - _SoftInverted: 0
    - _SrcBlend: 1
    - _SrcMode: 5
    - _UVSec: 0
    - _UseAlphaCliping: 1
    - _UseBlending: 0
    - _UseCutout: 0
    - _UseCutoutTex: 0
    - _UseCutoutThreshold: 0
    - _UseFrameBlending: 0
    - _UseFresnel: 0
    - _UseFresnelFading: 0
    - _UseHeight: 0
    - _UseMainTex: 0
    - _UseNoiseDistortion: 0
    - _UseParticlesAlphaCutout: 0
    - _UseRefractive: 0
    - _UseSoft: 1
    - _UseSoftCutout: 0
    - _UseVertexLight: 0
    - _UseVertexStreamRandom: 0
    - _ZWrite: 1
    - _ZWriteMode: 0
    m_Colors:
    - _Color: {r: 1, g: 1, b: 1, a: 1}
    - _CutoutColor: {r: 1, g: 1, b: 1, a: 1}
    - _DistortionSpeedScale: {r: 1, g: -1, b: 0.15, a: 0.15}
    - _EmissionColor: {r: 0, g: 0, b: 0, a: 1}
    - _FogColorMultiplier: {r: 0, g: 0, b: 0, a: 0}
    - _FresnelColor: {r: 0.5, g: 0.5, b: 0.5, a: 1}
    - _HeightUVScrollDistort: {r: 8, g: 12, b: 0, a: 0}
    - _MainColor: {r: 1, g: 1, b: 1, a: 1}
    - _TintColor: {r: 2, g: 2, b: 2, a: 1}
