%YAML 1.1
%TAG !u! tag:unity3d.com,2011:
--- !u!21 &2100000
Material:
  serializedVersion: 6
  m_ObjectHideFlags: 0
  m_CorrespondingSourceObject: {fileID: 0}
  m_PrefabInstance: {fileID: 0}
  m_PrefabAsset: {fileID: 0}
  m_Name: Mesh_MeshEffectMobile
  m_Shader: {fileID: 4800000, guid: 23b58093664b8094d827a9dbdf65dce9, type: 3}
  m_ShaderKeywords: USE_CUTOUT USE_FRESNEL USE_HEIGHT USE_MAINTEX
  m_LightmapFlags: 5
  m_EnableInstancingVariants: 0
  m_DoubleSidedGI: 0
  m_CustomRenderQueue: 2999
  stringTagMap: {}
  disabledShaderPasses: []
  m_SavedProperties:
    serializedVersion: 3
    m_TexEnvs:
    - _BumpMap:
        m_Texture: {fileID: 2800000, guid: 1342fe7f8d3320a438116adb07b990a5, type: 3}
        m_Scale: {x: 1, y: 1}
        m_Offset: {x: 0, y: 0}
    - _BumpMapCubeMap:
        m_Texture: {fileID: 0}
        m_Scale: {x: 1, y: 1}
        m_Offset: {x: 0, y: 0}
    - _Cube:
        m_Texture: {fileID: 0}
        m_Scale: {x: 1, y: 1}
        m_Offset: {x: 0, y: 0}
    - _CutoutTex:
        m_Texture: {fileID: 2800000, guid: adc3518309a403f4cb98809a2761e11f, type: 3}
        m_Scale: {x: 1, y: 1}
        m_Offset: {x: 0, y: 0}
    - _DispTex:
        m_Texture: {fileID: 0}
        m_Scale: {x: 1, y: 1}
        m_Offset: {x: 0, y: 0}
    - _HeightMap:
        m_Texture: {fileID: 2800000, guid: c69c46de76022b547a44a3800994699f, type: 3}
        m_Scale: {x: 1, y: 1}
        m_Offset: {x: 0, y: 0}
    - _HeightTex:
        m_Texture: {fileID: 0}
        m_Scale: {x: 1, y: 1}
        m_Offset: {x: 0, y: 0}
    - _MainTex:
        m_Texture: {fileID: 2800000, guid: 535b6549d427e4744bcdd21ad72cc2e4, type: 3}
        m_Scale: {x: 10, y: 10}
        m_Offset: {x: 0, y: 0}
    - _NormalMap:
        m_Texture: {fileID: 0}
        m_Scale: {x: 1, y: 1}
        m_Offset: {x: 0, y: 0}
    - _NormalTex:
        m_Texture: {fileID: 2800000, guid: 1342fe7f8d3320a438116adb07b990a5, type: 3}
        m_Scale: {x: 1, y: 1}
        m_Offset: {x: 0, y: 0}
    - _ParallaxMap:
        m_Texture: {fileID: 0}
        m_Scale: {x: 1, y: 1}
        m_Offset: {x: 0, y: 0}
    m_Floats:
    - _AlphaClip: 10
    - _BumpAmt: 15
    - _CullMode: 2
    - _CutOut: 0.3
    - _Cutoff: 1
    - _Cutout: 1
    - _CutoutThreshold: 0
    - _Displacement: 0.3
    - _Distortion: 20
    - _EdgeLength: 3
    - _FPOW: 1
    - _FresnelDistort: -10
    - _FresnelPow: 1
    - _FresnelR0: 0.07
    - _Height: 0
    - _IceStrength: 1.5
    - _InvFade: 3
    - _LightStr: 0
    - _MainTexAlpha: 0.9642858
    - _OffsetXHeightMap: 0.401
    - _OffsetYHeightMap: 0.549
    - _Opacity: 1
    - _Parallax: 0.5
    - _R0: 0.3
    - _ReflectionStrength: 6.1
    - _RefractiveStrength: -0.02
    - _Scale: 0.3928571
    - _Shininess: 1
    - _Tess: 4
    - _TexDist: 10
    - _UseAlphaCliping: 0
    - _UseBlending: 0
    - _UseCutout: 1
    - _UseFresnel: 1
    - _UseHeight: 1
    - _UseMainTex: 1
    - _UseRefractive: 0
    - _UseSoft: 0
    - _ZWriteMode: 0
    m_Colors:
    - _Color: {r: 0.7941176, g: 0.8617208, b: 1, a: 1}
    - _CutoutColor: {r: 0, g: 0, b: 0, a: 1}
    - _FresnelColor: {r: 0.6102941, g: 0.7581136, b: 1, a: 1}
    - _HeightUVScrollDistort: {r: 0.01, g: -0.05, b: 0, a: 0}
    - _MainColor: {r: 0, g: 0, b: 0, a: 1}
    - _ReflectColor: {r: 0.6102941, g: 0.70973617, b: 1, a: 1}
    - _RimColor: {r: 0.5294118, g: 0.5294118, b: 0.5294118, a: 1}
    - _SpecColor: {r: 1, g: 1, b: 1, a: 1}
    - _Speed: {r: 0, g: 0, b: 0, a: 0}
    - _TintColor: {r: 0, g: 0, b: 0, a: 0.13}
