%YAML 1.1
%TAG !u! tag:unity3d.com,2011:
--- !u!1045 &1
EditorBuildSettings:
  m_ObjectHideFlags: 0
  serializedVersion: 2
  m_Scenes:
  - enabled: 0
    path: 
    guid: 00000000000000000000000000000000
  - enabled: 0
    path: 
    guid: 00000000000000000000000000000000
  - enabled: 1
    path: Assets/Scenes/Scene0.unity
    guid: 9b698a85ff86bc9f492a3fb06ee41954
  - enabled: 1
    path: Assets/Scenes/Scene1-2W.unity
    guid: 8258ccdd9f2d1aa45beb0772ad285bf5
  - enabled: 0
    path: 
    guid: 00000000000000000000000000000000
  - enabled: 1
    path: Assets/Scenes/Scene2-2.unity
    guid: b4cfbbc69e199fe41ac6fb7db842ccab
  - enabled: 1
    path: Assets/Scenes/scene1-3B.unity
    guid: 60c1b812df324434bb1510044b782bd4
  - enabled: 1
    path: Assets/Scenes/Scene3-1.unity
    guid: 4325895242c5ca54380db693e0b8a79d
  - enabled: 1
    path: Assets/Scenes/scene1-3W.unity
    guid: 5475a8e1f29ffeee69defb8b0806efbc
  - enabled: 1
    path: Assets/Scenes/Scene3-3.unity
    guid: c79a786fd6675d3ac8b614b1e13c8cf1
  - enabled: 1
    path: Assets/Scenes/scene3.unity
    guid: 95e3816b9534cc1458362ba0c40844f8
  - enabled: 1
    path: Assets/Scenes/Scene3-2(minesweeper).unity
    guid: 76f3d23acf1e90c419ebfd989c706df1
  - enabled: 0
    path: 
    guid: 00000000000000000000000000000000
  - enabled: 1
    path: Assets/Scenes/Scene0_to_1.unity
    guid: 5b6e94b09e358f5489879e4d8381b98a
  - enabled: 1
    path: Assets/Scenes/Scene1-1.unity
    guid: 8b966600b309d6740b8adcbbfb1ca8db
  - enabled: 1
    path: Assets/Scenes/Scene1-2B.unity
    guid: 80038404ed5f67a4384c79abd7a62430
  - enabled: 1
    path: Assets/Scenes/Scene3-1(foolfill).unity
    guid: 8d5b944d34b1ea1469db13d6bdeee2e4
  - enabled: 1
    path: Assets/Scenes/Scene3_Coding.unity
    guid: a07faaba9d7bd5d4b82dd07e99c0ea49
  - enabled: 1
    path: Assets/Scenes/Scene4.unity
    guid: 5c1bbfe6a32027b4bbf872f4a3907099
  - enabled: 1
    path: Assets/Scenes/Scene4_coding.unity
    guid: 53498002bfb934b4389eb186d26e7f82
  - enabled: 1
    path: Assets/Scenes/Scene_End.unity
    guid: 2433c08c109c9f146bc05e36becd6232
  m_configObjects: {}
